%YAML 1.1
%TAG !u! tag:unity3d.com,2011:
--- !u!21 &2100000
Material:
  serializedVersion: 6
  m_ObjectHideFlags: 0
  m_CorrespondingSourceObject: {fileID: 0}
  m_PrefabInstance: {fileID: 0}
  m_PrefabAsset: {fileID: 0}
  m_Name: plane_tree_leaves
  m_Shader: {fileID: 4800000, guid: e9e4e240fc0b8af4092cb7ac2a35bfbd, type: 3}
  m_ShaderKeywords: GEOM_TYPE_LEAF _ALPHATEST_ON _Dupa _EMISSION _KEYWORD0_ON _NORMALMAP
    _SNOW_ON _WIGGLE1_ON _WIGGLE_ON _WIND _WIND1_ON _WINDQUALITY_NONE _WIND_ON
  m_LightmapFlags: 1
  m_EnableInstancingVariants: 0
  m_DoubleSidedGI: 1
  m_CustomRenderQueue: -1
  stringTagMap: {}
  disabledShaderPasses: []
  m_SavedProperties:
    serializedVersion: 3
    m_TexEnvs:
    - NoiseTextureFloat1:
        m_Texture: {fileID: 2800000, guid: 242e784a7670a0940bcdf7e1cfdbdf5d, type: 3}
        m_Scale: {x: 1, y: 1}
        m_Offset: {x: 0, y: 0}
    - _Albedo:
        m_Texture: {fileID: 2800000, guid: d3681cf51ec84c14db5cf99a174d8761, type: 3}
        m_Scale: {x: 1, y: 1}
        m_Offset: {x: 0, y: 0}
    - _Albedo_MaskA:
        m_Texture: {fileID: 2800000, guid: a229f3434d80b1c4dbf29ca0bfbab7f6, type: 3}
        m_Scale: {x: 1, y: 1}
        m_Offset: {x: 0, y: 0}
    - _BumpMap:
        m_Texture: {fileID: 2800000, guid: b59ab25165c43874bbc4d2d63263b0bb, type: 3}
        m_Scale: {x: 1, y: 1}
        m_Offset: {x: 0, y: 0}
    - _BumpSpecMap:
        m_Texture: {fileID: 0}
        m_Scale: {x: 1, y: 1}
        m_Offset: {x: 0, y: 0}
    - _Color:
        m_Texture: {fileID: 2800000, guid: a229f3434d80b1c4dbf29ca0bfbab7f6, type: 3}
        m_Scale: {x: 1, y: 1}
        m_Offset: {x: 0, y: 0}
    - _DetailAlbedoMap:
        m_Texture: {fileID: 0}
        m_Scale: {x: 1, y: 1}
        m_Offset: {x: 0, y: 0}
    - _DetailMask:
        m_Texture: {fileID: 0}
        m_Scale: {x: 1, y: 1}
        m_Offset: {x: 0, y: 0}
    - _DetailNormalMap:
        m_Texture: {fileID: 0}
        m_Scale: {x: 1, y: 1}
        m_Offset: {x: 0, y: 0}
    - _DetailTex:
        m_Texture: {fileID: 0}
        m_Scale: {x: 1, y: 1}
        m_Offset: {x: 0, y: 0}
    - _EmissionMap:
        m_Texture: {fileID: 0}
        m_Scale: {x: 1, y: 1}
        m_Offset: {x: 0, y: 0}
    - _ExtraTex:
        m_Texture: {fileID: 0}
        m_Scale: {x: 1, y: 1}
        m_Offset: {x: 0, y: 0}
    - _GlossMap:
        m_Texture: {fileID: 0}
        m_Scale: {x: 1, y: 1}
        m_Offset: {x: 0, y: 0}
    - _Illum:
        m_Texture: {fileID: 0}
        m_Scale: {x: 1, y: 1}
        m_Offset: {x: 0, y: 0}
    - _MainTex:
        m_Texture: {fileID: 2800000, guid: a229f3434d80b1c4dbf29ca0bfbab7f6, type: 3}
        m_Scale: {x: 1, y: 1}
        m_Offset: {x: 0, y: 0}
    - _MetallicGlossMap:
        m_Texture: {fileID: 0}
        m_Scale: {x: 1, y: 1}
        m_Offset: {x: 0, y: 0}
    - _MotionPowerWeightMask:
        m_Texture: {fileID: 2800000, guid: 1595152582ce1b34596ac93d58e15f39, type: 3}
        m_Scale: {x: 0, y: 0}
        m_Offset: {x: 0, y: 0}
    - _MotionPowerWeightMask2:
        m_Texture: {fileID: 0}
        m_Scale: {x: 1, y: 1}
        m_Offset: {x: 0, y: 0}
    - _NoiseTextureFloat:
        m_Texture: {fileID: 2800000, guid: 1595152582ce1b34596ac93d58e15f39, type: 3}
        m_Scale: {x: 1, y: 1}
        m_Offset: {x: 0, y: 0}
    - _NormalMap:
        m_Texture: {fileID: 2800000, guid: 05b4a19f67bd43f46ac7e2b131ad5683, type: 3}
        m_Scale: {x: 1, y: 1}
        m_Offset: {x: 0, y: 0}
    - _OcclusionMap:
        m_Texture: {fileID: 0}
        m_Scale: {x: 1, y: 1}
        m_Offset: {x: 0, y: 0}
    - _ParallaxMap:
        m_Texture: {fileID: 0}
        m_Scale: {x: 1, y: 1}
        m_Offset: {x: 0, y: 0}
    - _ShadowOffset:
        m_Texture: {fileID: 0}
        m_Scale: {x: 1, y: 1}
        m_Offset: {x: 0, y: 0}
    - _ShadowTex:
        m_Texture: {fileID: 0}
        m_Scale: {x: 1, y: 1}
        m_Offset: {x: 0, y: 0}
    - _SubsurfaceTex:
        m_Texture: {fileID: 0}
        m_Scale: {x: 1, y: 1}
        m_Offset: {x: 0, y: 0}
    - _TerrainHolesTexture:
        m_Texture: {fileID: 0}
        m_Scale: {x: 1, y: 1}
        m_Offset: {x: 0, y: 0}
    - _TextureSample2:
        m_Texture: {fileID: 0}
        m_Scale: {x: 1, y: 1}
        m_Offset: {x: 0, y: 0}
    - _TranslucencyMap:
        m_Texture: {fileID: 0}
        m_Scale: {x: 1, y: 1}
        m_Offset: {x: 0, y: 0}
    - _texcoord:
        m_Texture: {fileID: 0}
        m_Scale: {x: 1, y: 1}
        m_Offset: {x: 0, y: 0}
    m_Floats:
    - LeavesWiggleFloat1: 0.152
    - WindSpeedFloat1: 0.35
    - WindStrenghtFloat1: 0.5411765
    - WindTurbulence: 0.35
    - WindTurbulenceFloat1: 0.31
    - _AO: 2.4
    - _AddPrecomputedVelocity: 1
    - _AlphaCutoff: 0.5
    - _AlphaCutoffEnable: 1
    - _AlphaDstBlend: 0
    - _AlphaSrcBlend: 1
    - _BaseLight: 0.35
    - _BillboardKwToggle: 0
    - _BillboardShadowFade: 0.5
    - _BlendMode: 0
    - _BumpMap: 1
    - _BumpScale: 10
    - _ClipThreshold: 0.5
    - _Cull: 0
    - _CullMode: 2
    - _CullModeForward: 2
    - _CustomColorAmount: 0
    - _CustomColorAmount1: 0
    - _Cutoff: 0.4
    - _Darken: 0
    - _Darker: 0.3811176
    - _DarknessOnSundown: 0.687
    - _DesaturateTranslucency: 0
    - _DetailNormalMapScale: 1
    - _Diffusion: 3.5648174
    - _Dimming: 0
    - _Distortion: 0
    - _DoubleSidedEnable: 1
    - _DoubleSidedNormalMode: 2
    - _DstBlend: 0
    - _EnableFogOnTransparent: 1
    - _Flutter: 0.07
    - _FlutterStrength: 0.5
    - _Gloss: -0.343
    - _GlossMapScale: 1
    - _Glossiness: 0
    - _GlossyReflections: 1
    - _Glow: 0.5
    - _HueVariationKwToggle: 0
    - _Keyword0: 1
    - _LeavesDistortion: 0.346
    - _LeavesDistortionStrength: 0.447
    - _LightStrength: 1
    - _Metallic: 0
    - _Mode: 1
    - _MotionRange: 0.36
    - _MotionSpeed: 0.37
    - _NormalMapKwToggle: 0
    - _OcclusionStrength: 1
    - _Parallax: 0.02
    - _ReceivesSSR: 1
    - _RenderQueueType: 1
    - _RequireSplitLighting: 1
    - _SelfIllum: 0.372
    - _ShadowOffsetScale: 1
    - _ShadowSaturation: 0.5
    - _ShadowStrenght: 0.555
    - _ShadowStrength: 0.3
    - _ShakeBending: 0.683
    - _ShakeDisplacement: 0.427
    - _ShakeTime: 0.69
    - _ShakeWindspeed: 0.434
    - _Shininess: 0.078125
    - _SmoothnessTextureChannel: 0
    - _Snow: 1
    - _SpecularHighlights: 1
    - _SpecularStrength: 0
    - _SquashAmount: 1
    - _SrcBlend: 1
    - _StencilRef: 0
    - _StencilRefDepth: 8
    - _StencilRefDistortionVec: 4
    - _StencilRefGBuffer: 10
    - _StencilRefMV: 40
    - _StencilWriteMask: 6
    - _StencilWriteMaskDepth: 8
    - _StencilWriteMaskDistortionVec: 4
    - _StencilWriteMaskGBuffer: 14
    - _StencilWriteMaskMV: 40
    - _SubsurfaceIndirect: 0.25
    - _SubsurfaceKwToggle: 0
    - _SurfaceType: 0
    - _SwayRange: 1.2
    - _SwayRange2: 0.47
    - _SwaySpeed: 4.65
    - _SwaySpeed2: 0.37
    - _SwitchColumn: 0
    - _SwitchRow: 0
    - _TessEdgeLength: 16
    - _TessMax: 25
    - _TessMaxDisp: 25
    - _TessMin: 10
    - _TessPhongStrength: 0.5
    - _TessValue: 16
    - _TransAmbient: 0
    - _TransDirect: 0
    - _TransNormalDistortion: 0.145
    - _TransScattering: 1
    - _TransShadow: 0
    - _TransStrength: 1
    - _Translucency: 0
    - _TranslucencySaturation: 0
    - _TranslucencyViewDependency: 0
    - _TransparentBackfaceEnable: 0
    - _TransparentCullMode: 2
    - _TransparentSortPriority: 0
    - _TransparentZWrite: 1
    - _TwoSided: 0
    - _UVSec: 0
    - _UseShadowThreshold: 0
    - _Wiggle: 1
    - _Wiggle1: 1
    - _WiggleStrenght: 0.5
    - _WiggleStrenght1: 0.447
    - _Wind: 1
    - _Wind1: 1
    - _WindPower: 0.37
    - _WindQuality: 0
    - _WindRange: 0.36
    - _WindSpeed: 0.5
    - _WindSpeedFloat: 0.673
    - _WindStrenght: 1
    - _WindStrenght1: 0.109
    - _WindStrenght2: 0.59
    - _WindStrength: 0.5
    - _WindStrengthFloat: 0.5
    - _WindTurbulenceFloat: 0.654
    - _WorldSpaceOffset: 0
    - _ZTestDepthEqualForOpaque: 4
    - _ZTestGBuffer: 4
    - _ZTestTransparent: 4
    - _ZWrite: 1
    - __dirty: 0
    - _dupa: 1
    m_Colors:
    - _Color: {r: 1, g: 1, b: 1, a: 1}
    - _CustomColorHigh: {r: 0.5528651, g: 0.875, b: 0.4503677, a: 0}
    - _CustomColorHigh1: {r: 0.5528651, g: 0.875, b: 0.4503677, a: 0}
    - _CustomColorLow: {r: 0.4433962, g: 0.4433962, b: 0.4433962, a: 0}
    - _CustomColorLow1: {r: 0.1362457, g: 0.3308824, b: 0.137588, a: 0}
    - _Diffusion_asset: {r: 2.2888926e+38, g: 1.2389358e-26, b: 7.69327e-37, a: 0.00018220427}
    - _DoubleSidedConstants: {r: 1, g: 1, b: -1, a: 0}
    - _EmissionColor: {r: 0, g: 0, b: 0, a: 1}
    - _HueVariation: {r: 1, g: 0.5, b: 0, a: 0.1}
    - _HueVariationColor: {r: 1, g: 0.5, b: 0, a: 0.1}
    - _SpecColor: {r: 0.5, g: 0.5, b: 0.5, a: 1}
    - _SpecularColor: {r: 1, g: 1, b: 1, a: 1}
    - _SpecularTone: {r: 0, g: 0, b: 0, a: 0}
    - _SubsurfaceColor: {r: 1, g: 1, b: 1, a: 1}
    - _TranslucencyColor: {r: 1, g: 1, b: 1, a: 1}
    - _TreeInstanceColor: {r: 1, g: 1, b: 1, a: 1}
    - _TreeInstanceScale: {r: 1, g: 1, b: 1, a: 1}
    - _WindDirection: {r: 0.8, g: 0.8, b: 0.8, a: 0}
